multicycle_tb.vcd
$date
	Mon Jan 22 17:38:29 2024
$end
$version
	Icarus Verilog
$end
$timescale
	1ps
$end
$scope module multicycle_tb $end
$var wire 32 ! instr [31:0] $end
$var wire 32 " dWriteData [31:0] $end
$var wire 32 # dReadData [31:0] $end
$var wire 32 $ dAddress [31:0] $end
$var wire 32 % WriteBackData [31:0] $end
$var wire 32 & PC [31:0] $end
$var wire 1 ' MemWrite $end
$var wire 1 ( MemRead $end
$var reg 1 ) clk $end
$var reg 1 * rst $end
$scope module DUT $end
$var wire 1 ) clk $end
$var wire 1 * rst $end
$var wire 7 + opcode [6:0] $end
$var wire 32 , instr [31:0] $end
$var wire 7 - funct7 [6:0] $end
$var wire 3 . funct3 [2:0] $end
$var wire 32 / dWriteData [31:0] $end
$var wire 32 0 dReadData [31:0] $end
$var wire 32 1 dAddress [31:0] $end
$var wire 1 2 Zero $end
$var wire 32 3 WriteBackData [31:0] $end
$var wire 1 4 PCSrc $end
$var wire 32 5 PC [31:0] $end
$var wire 1 6 MemToReg $end
$var wire 1 7 ALUSrc $end
$var wire 4 8 ALUCtrl [3:0] $end
$var parameter 3 9 EX $end
$var parameter 3 : ID $end
$var parameter 3 ; IF $end
$var parameter 32 < INITIAL_PC $end
$var parameter 3 = MEM $end
$var parameter 3 > WB $end
$var reg 1 ( MemRead $end
$var reg 1 ' MemWrite $end
$var reg 1 ? RegWrite $end
$var reg 3 @ current_state [2:0] $end
$var reg 1 A loadPC $end
$var reg 3 B next_state [2:0] $end
$scope module my_datapath $end
$var wire 4 C ALUCtrl [3:0] $end
$var wire 1 7 ALUSrc $end
$var wire 1 6 MemToReg $end
$var wire 1 4 PCSrc $end
$var wire 1 ? RegWrite $end
$var wire 32 D alu_op1 [31:0] $end
$var wire 1 ) clk $end
$var wire 32 E dWriteData [31:0] $end
$var wire 1 A loadPC $end
$var wire 1 * rst $end
$var wire 32 F writeData [31:0] $end
$var wire 5 G writeReg [4:0] $end
$var wire 5 H readReg2 [4:0] $end
$var wire 5 I readReg1 [4:0] $end
$var wire 32 J readData2 [31:0] $end
$var wire 32 K readData1 [31:0] $end
$var wire 7 L opcode [6:0] $end
$var wire 32 M instr [31:0] $end
$var wire 3 N funct3 [2:0] $end
$var wire 32 O dReadData [31:0] $end
$var wire 32 P dAddress [31:0] $end
$var wire 32 Q branch_offset [31:0] $end
$var wire 32 R alu_op2 [31:0] $end
$var wire 1 2 Zero $end
$var wire 32 S WriteBackData [31:0] $end
$var wire 32 T IG_data [31:0] $end
$var parameter 32 U INITIAL_PC $end
$var reg 32 V PC [31:0] $end
$scope module my_alu $end
$var wire 4 W alu_op [3:0] $end
$var wire 32 X op1 [31:0] $end
$var wire 32 Y op1_signed [31:0] $end
$var wire 32 Z op2 [31:0] $end
$var wire 32 [ op2_signed [31:0] $end
$var wire 1 2 zero $end
$var wire 32 \ result [31:0] $end
$upscope $end
$scope module my_regfile $end
$var wire 1 ) clk $end
$var wire 5 ] readReg1 [4:0] $end
$var wire 5 ^ readReg2 [4:0] $end
$var wire 1 ? write $end
$var wire 32 _ writeData [31:0] $end
$var wire 5 ` writeReg [4:0] $end
$var reg 32 a readData1 [31:0] $end
$var reg 32 b readData2 [31:0] $end
$scope begin $ivl_for_loop0 $end
$var integer 32 c i [31:0] $end
$upscope $end
$upscope $end
$upscope $end
$upscope $end
$scope module data_mem $end
$var wire 9 d addr [8:0] $end
$var wire 1 ) clk $end
$var wire 32 e din [31:0] $end
$var wire 1 ' we $end
$var reg 32 f dout [31:0] $end
$upscope $end
$scope module inst_mem $end
$var wire 9 g addr [8:0] $end
$var wire 1 ) clk $end
$var reg 32 h dout [31:0] $end
$upscope $end
$upscope $end
$enddefinitions $end
$comment Show the parameter values. $end
$dumpall
b10000000000000000000000 U
b100 >
b11 =
b10000000000000000000000 <
b0 ;
b1 :
b10 9
$end
#0
$dumpvars
bx h
b0 g
bx f
bx e
bx d
b100000 c
bx b
bx a
bx `
bx _
bx ^
bx ]
bx \
bx [
bx Z
bx Y
bx X
bx W
b10000000000000000000000 V
bx T
bx S
bx R
bx0 Q
bx P
bx O
bx N
bx M
bx L
bx K
bx J
bx I
bx H
bx G
bx F
bx E
bx D
bx C
b1 B
0A
b0 @
0?
bx 8
x7
x6
b10000000000000000000000 5
x4
bx 3
x2
bx 1
bx 0
bx /
bx .
bx -
bx ,
bx +
1*
1)
0(
0'
b10000000000000000000000 &
bx %
bx $
bx #
bx "
bx !
$end
#10
0)
#20
b10 8
b10 C
b10 W
b100 [
b100 R
b100 Z
17
04
b1000 Q
06
b100 T
b10 B
b0 N
b10011 L
b1 G
b1 `
b100 H
b100 ^
b0 I
b0 ]
b0 -
b0 .
b10011 +
b1 @
b10000000000000010010011 !
b10000000000000010010011 ,
b10000000000000010010011 M
b10000000000000010010011 h
1)
0*
#30
0)
#40
b11 B
b10 @
02
b100 F
b100 _
b100 %
b100 3
b100 S
b100 d
b100 $
b100 1
b100 P
b100 \
b0 "
b0 /
b0 E
b0 e
b0 J
b0 b
b0 Y
b0 D
b0 X
b0 K
b0 a
1)
#50
0)
#60
b100 B
b11 @
1)
#70
0)
#80
1A
1?
b0 B
b100 @
1)
#90
0)
#100
b1 B
0A
0?
b100 g
b0 @
b10000000000000000000100 &
b10000000000000000000100 5
b10000000000000000000100 V
1)
#110
0)
#120
b1 F
b1 _
b1 %
b1 3
b1 S
b1 d
b1 $
b1 1
b1 P
b1 \
b10 Q
b1 [
b1 R
b1 Z
b1 T
b10 G
b10 `
b1 H
b1 ^
b10 B
b100000000000100010011 !
b100000000000100010011 ,
b100000000000100010011 M
b100000000000100010011 h
b1 @
1)
#130
0)
#140
b11 B
b10 @
b100 "
b100 /
b100 E
b100 e
b100 J
b100 b
1)
#150
0)
#160
b100 B
b11 @
1)
#170
0)
#180
b0 B
1A
1?
b100 @
1)
#190
0)
#200
b1000 g
0A
0?
b1 B
b10000000000000000001000 &
b10000000000000000001000 5
b10000000000000000001000 V
b0 @
1)
#210
0)
#220
b11 F
b11 _
b11 %
b11 3
b11 S
b11 d
b11 $
b11 1
b11 P
b11 \
b110 Q
b11 [
b11 R
b11 Z
b11 T
b10 B
b11 G
b11 `
b11 H
b11 ^
b1 @
b1100000000000110010011 !
b1100000000000110010011 ,
b1100000000000110010011 M
b1100000000000110010011 h
1)
#230
0)
#240
b11 B
b10 @
b0 "
b0 /
b0 E
b0 e
b0 J
b0 b
1)
#250
0)
#260
b100 B
b11 @
1)
#270
0)
#280
1A
1?
b0 B
b100 @
1)
#290
0)
#300
b1 B
0A
0?
b1100 g
b0 @
b10000000000000000001100 &
b10000000000000000001100 5
b10000000000000000001100 V
1)
#310
0)
#320
b111 F
b111 _
b111 %
b111 3
b111 S
b111 d
b111 $
b111 1
b111 P
b111 \
b1110 Q
b111 [
b111 R
b111 Z
b111 T
b100 G
b100 `
b111 H
b111 ^
b10 B
b11100000000001000010011 !
b11100000000001000010011 ,
b11100000000001000010011 M
b11100000000001000010011 h
b1 @
b11 "
b11 /
b11 E
b11 e
b11 J
b11 b
1)
#330
0)
#340
b11 B
b10 @
b0 "
b0 /
b0 E
b0 e
b0 J
b0 b
1)
#350
0)
#360
b100 B
b11 @
1)
#370
0)
#380
b0 B
1A
1?
b100 @
1)
#390
0)
#400
b10000 g
0A
0?
b1 B
b10000000000000000010000 &
b10000000000000000010000 5
b10000000000000000010000 V
b0 @
1)
#410
0)
#420
b11111111111111111111111111111110 F
b11111111111111111111111111111110 _
b11111111111111111111111111111110 %
b11111111111111111111111111111110 3
b11111111111111111111111111111110 S
b111111110 d
b11111111111111111111111111111110 $
b11111111111111111111111111111110 1
b11111111111111111111111111111110 P
b11111111111111111111111111111110 \
b11111111111111111111111111111100 Q
b11111111111111111111111111111110 [
b11111111111111111111111111111110 R
b11111111111111111111111111111110 Z
b11111111111111111111111111111110 T
b10 B
b101 G
b101 `
b11110 H
b11110 ^
b1111111 -
b1 @
b11111111111000000000001010010011 !
b11111111111000000000001010010011 ,
b11111111111000000000001010010011 M
b11111111111000000000001010010011 h
1)
#430
0)
#440
b11 B
b10 @
1)
#450
0)
#460
b100 B
b11 @
1)
#470
0)
#480
1A
1?
b0 B
b100 @
1)
#490
0)
#500
b1 B
0A
0?
b10100 g
b0 @
b10000000000000000010100 &
b10000000000000000010100 5
b10000000000000000010100 V
1)
#510
0)
#520
12
b0 F
b0 _
b0 %
b0 3
b0 S
b0 d
b0 $
b0 1
b0 P
b0 \
07
b0 Q
b0 [
b0 R
b0 Z
b0 T
b110011 L
b110 G
b110 `
b11 H
b11 ^
b11 I
b11 ]
b0 -
b110011 +
b10 B
b1100011000001100110011 !
b1100011000001100110011 ,
b1100011000001100110011 M
b1100011000001100110011 h
b1 @
1)
#530
0)
#540
b11 B
b10 @
02
b110 F
b110 _
b110 %
b110 3
b110 S
b110 d
b110 $
b110 1
b110 P
b110 \
b11 [
b11 R
b11 Z
b11 "
b11 /
b11 E
b11 e
b11 J
b11 b
b11 Y
b11 D
b11 X
b11 K
b11 a
1)
#550
0)
#560
b100 B
b11 @
1)
#570
0)
#580
b0 B
1A
1?
b100 @
1)
#590
0)
#600
b11000 g
0A
0?
b1 B
b10000000000000000011000 &
b10000000000000000011000 5
b10000000000000000011000 V
b0 @
1)
#610
0)
#620
12
b0 F
b0 _
b0 %
b0 3
b0 S
b0 d
b0 $
b0 1
b0 P
b0 \
b110 8
b110 C
b110 W
b10 B
b111 G
b111 `
b101 H
b101 ^
b110 I
b110 ]
b100000 -
b1 @
b1000000010100110000001110110011 !
b1000000010100110000001110110011 ,
b1000000010100110000001110110011 M
b1000000010100110000001110110011 h
1)
#630
0)
#640
b11 B
b10 @
02
b1000 F
b1000 _
b1000 %
b1000 3
b1000 S
b1000 d
b1000 $
b1000 1
b1000 P
b1000 \
b11111111111111111111111111111110 [
b11111111111111111111111111111110 R
b11111111111111111111111111111110 Z
b11111111111111111111111111111110 "
b11111111111111111111111111111110 /
b11111111111111111111111111111110 E
b11111111111111111111111111111110 e
b11111111111111111111111111111110 J
b11111111111111111111111111111110 b
b110 Y
b110 D
b110 X
b110 K
b110 a
1)
#650
0)
#660
b100 B
b11 @
1)
#670
0)
#680
1A
1?
b0 B
b100 @
1)
#690
0)
#700
b1 B
0A
0?
b11100 g
b0 @
b10000000000000000011100 &
b10000000000000000011100 5
b10000000000000000011100 V
1)
#710
0)
#720
02
b10000000000000000000000000000000 F
b10000000000000000000000000000000 _
b10000000000000000000000000000000 %
b10000000000000000000000000000000 3
b10000000000000000000000000000000 S
b0 d
b10000000000000000000000000000000 $
b10000000000000000000000000000000 1
b10000000000000000000000000000000 P
b10000000000000000000000000000000 \
b1001 8
b1001 C
b1001 W
b1 N
b1000 G
b1000 `
b10 H
b10 ^
b11 I
b11 ]
b0 -
b1 .
b10 B
b1000011001010000110011 !
b1000011001010000110011 ,
b1000011001010000110011 M
b1000011001010000110011 h
b1 @
1)
#730
0)
#740
b11 B
b10 @
b110 d
b110 F
b110 _
b110 %
b110 3
b110 S
b110 $
b110 1
b110 P
b110 \
b1 [
b1 R
b1 Z
b1 "
b1 /
b1 E
b1 e
b1 J
b1 b
b11 Y
b11 D
b11 X
b11 K
b11 a
1)
#750
0)
#760
b100 B
b11 @
1)
#770
0)
#780
b0 B
1A
1?
b100 @
1)
#790
0)
#800
b100000 g
0A
0?
b1 B
b10000000000000000100000 &
b10000000000000000100000 5
b10000000000000000100000 V
b0 @
1)
#810
0)
#820
12
b0 F
b0 _
b0 %
b0 3
b0 S
b0 d
b0 $
b0 1
b0 P
b0 \
b111 8
b111 C
b111 W
b10 B
b10 N
b1001 G
b1001 `
b100 H
b100 ^
b1000 I
b1000 ]
b10 .
b1 @
b10001000010010010110011 !
b10001000010010010110011 ,
b10001000010010010110011 M
b10001000010010010110011 h
1)
#830
0)
#840
b11 B
b10 @
02
b1 F
b1 _
b1 %
b1 3
b1 S
b1 d
b1 $
b1 1
b1 P
b1 \
b111 [
b111 R
b111 Z
b111 "
b111 /
b111 E
b111 e
b111 J
b111 b
b110 Y
b110 D
b110 X
b110 K
b110 a
1)
#850
0)
#860
b100 B
b11 @
1)
#870
0)
#880
1A
1?
b0 B
b100 @
1)
#890
0)
#900
b1 B
0A
0?
b100100 g
b0 @
b10000000000000000100100 &
b10000000000000000100100 5
b10000000000000000100100 V
1)
#910
0)
#920
02
b1 F
b1 _
b1 %
b1 3
b1 S
b1 d
b1 $
b1 1
b1 P
b1 \
b1101 8
b1101 C
b1101 W
b100 N
b1010 G
b1010 `
b111 H
b111 ^
b1 I
b1 ]
b100 .
b10 B
b11100001100010100110011 !
b11100001100010100110011 ,
b11100001100010100110011 M
b11100001100010100110011 h
b1 @
1)
#930
0)
#940
b11 B
b10 @
b1100 F
b1100 _
b1100 %
b1100 3
b1100 S
b1100 d
b1100 $
b1100 1
b1100 P
b1100 \
b1000 [
b1000 R
b1000 Z
b1000 "
b1000 /
b1000 E
b1000 e
b1000 J
b1000 b
b100 Y
b100 D
b100 X
b100 K
b100 a
1)
#950
0)
#960
b100 B
b11 @
1)
#970
0)
#980
b0 B
1A
1?
b100 @
1)
#990
0)
#1000
b101000 g
0A
0?
b1 B
b10000000000000000101000 &
b10000000000000000101000 5
b10000000000000000101000 V
b0 @
1)
#1010
0)
#1020
12
b0 F
b0 _
b0 %
b0 3
b0 S
b0 d
b0 $
b0 1
b0 P
b0 \
b1000 8
b1000 C
b1000 W
b10 B
b101 N
b1011 G
b1011 `
b1001 H
b1001 ^
b1010 I
b1010 ]
b101 .
b1 @
b100101010101010110110011 !
b100101010101010110110011 ,
b100101010101010110110011 M
b100101010101010110110011 h
1)
#1030
0)
#1040
b11 B
b10 @
02
b110 F
b110 _
b110 %
b110 3
b110 S
b110 d
b110 $
b110 1
b110 P
b110 \
b1 [
b1 R
b1 Z
b1 "
b1 /
b1 E
b1 e
b1 J
b1 b
b1100 Y
b1100 D
b1100 X
b1100 K
b1100 a
1)
#1050
0)
#1060
b100 B
b11 @
1)
#1070
0)
#1080
1A
1?
b0 B
b100 @
1)
#1090
0)
#1100
b1 B
0A
0?
b101100 g
b0 @
b10000000000000000101100 &
b10000000000000000101100 5
b10000000000000000101100 V
1)
#1110
0)
#1120
12
b0 F
b0 _
b0 %
b0 3
b0 S
b0 d
b0 $
b0 1
b0 P
b0 \
b0 8
b0 C
b0 W
b111 N
b1100 G
b1100 `
b110 H
b110 ^
b11 I
b11 ]
b111 .
b10 B
b11000011111011000110011 !
b11000011111011000110011 ,
b11000011111011000110011 M
b11000011111011000110011 h
b1 @
1)
#1130
0)
#1140
b11 B
b10 @
02
b10 F
b10 _
b10 %
b10 3
b10 S
b10 d
b10 $
b10 1
b10 P
b10 \
b110 [
b110 R
b110 Z
b110 "
b110 /
b110 E
b110 e
b110 J
b110 b
b11 Y
b11 D
b11 X
b11 K
b11 a
1)
#1150
0)
#1160
b100 B
b11 @
1)
#1170
0)
#1180
b0 B
1A
1?
b100 @
1)
#1190
0)
#1200
b110000 g
0A
0?
b1 B
b10000000000000000110000 &
b10000000000000000110000 5
b10000000000000000110000 V
b0 @
1)
#1210
0)
#1220
b111 F
b111 _
b111 %
b111 3
b111 S
b111 d
b111 $
b111 1
b111 P
b111 \
b1 8
b1 C
b1 W
b10 B
b110 N
b1101 G
b1101 `
b1100 H
b1100 ^
b1010 I
b1010 ]
b110 .
b1 @
b110001010110011010110011 !
b110001010110011010110011 ,
b110001010110011010110011 M
b110001010110011010110011 h
1)
#1230
0)
#1240
b11 B
b10 @
b1110 F
b1110 _
b1110 %
b1110 3
b1110 S
b1110 d
b1110 $
b1110 1
b1110 P
b1110 \
b10 [
b10 R
b10 Z
b10 "
b10 /
b10 E
b10 e
b10 J
b10 b
b1100 Y
b1100 D
b1100 X
b1100 K
b1100 a
1)
#1250
0)
#1260
b100 B
b11 @
1)
#1270
0)
#1280
1A
1?
b0 B
b100 @
1)
#1290
0)
#1300
b1 B
0A
0?
b110100 g
b0 @
b10000000000000000110100 &
b10000000000000000110100 5
b10000000000000000110100 V
1)
#1310
0)
#1320
02
b11 F
b11 _
b11 %
b11 3
b11 S
b11 d
b11 $
b11 1
b11 P
b11 \
b1010 8
b1010 C
b1010 W
b101 N
b1110 G
b1110 `
b10 H
b10 ^
b101 I
b101 ]
b100000 -
b101 .
b10 B
b1000000001000101101011100110011 !
b1000000001000101101011100110011 ,
b1000000001000101101011100110011 M
b1000000001000101101011100110011 h
b1 @
1)
#1330
0)
#1340
b11 B
b10 @
b1111111111111111111111111111111 F
b1111111111111111111111111111111 _
b1111111111111111111111111111111 %
b1111111111111111111111111111111 3
b1111111111111111111111111111111 S
b111111111 d
b1111111111111111111111111111111 $
b1111111111111111111111111111111 1
b1111111111111111111111111111111 P
b1111111111111111111111111111111 \
b1 [
b1 R
b1 Z
b1 "
b1 /
b1 E
b1 e
b1 J
b1 b
b11111111111111111111111111111110 Y
b11111111111111111111111111111110 D
b11111111111111111111111111111110 X
b11111111111111111111111111111110 K
b11111111111111111111111111111110 a
1)
#1350
0)
#1360
b100 B
b11 @
1)
#1370
0)
#1380
b0 B
1A
1?
b100 @
1)
#1390
0)
#1400
b111000 g
0A
0?
b1 B
b10000000000000000111000 &
b10000000000000000111000 5
b10000000000000000111000 V
b0 @
1)
#1410
0)
#1420
b11111111111111111111111111111110 F
b11111111111111111111111111111110 _
b11111111111111111111111111111110 %
b11111111111111111111111111111110 3
b11111111111111111111111111111110 S
b111111110 d
b11111111111111111111111111111110 $
b11111111111111111111111111111110 1
b11111111111111111111111111111110 P
b11111111111111111111111111111110 \
b0 [
b0 R
b0 Z
b10 8
b10 C
b10 W
17
b10 B
b10 N
b100011 L
b0 G
b0 `
b1010 H
b1010 ^
b10 I
b10 ]
b0 -
b10 .
b100011 +
b1 @
b101000010010000000100011 !
b101000010010000000100011 ,
b101000010010000000100011 M
b101000010010000000100011 h
1)
#1430
0)
#1440
b11 B
b10 @
b1 F
b1 _
b1 %
b1 3
b1 S
b1 d
b1 $
b1 1
b1 P
b1 \
b1100 "
b1100 /
b1100 E
b1100 e
b1100 J
b1100 b
b1 Y
b1 D
b1 X
b1 K
b1 a
1)
#1450
0)
#1460
b100 B
1'
b11 @
1)
#1470
0)
#1480
1A
0'
b0 B
b100 @
1)
#1490
0)
#1500
b1 B
0A
b111100 g
b0 @
b10000000000000000111100 &
b10000000000000000111100 5
b10000000000000000111100 V
b1100 #
b1100 0
b1100 O
b1100 f
1)
#1510
0)
#1520
b1 d
b1 $
b1 1
b1 P
b1 \
b0 [
b0 R
b0 Z
17
b1100 F
b1100 _
b1100 %
b1100 3
b1100 S
16
b11 L
b1111 G
b1111 `
b0 H
b0 ^
b11 +
b10 B
b10010011110000011 !
b10010011110000011 ,
b10010011110000011 M
b10010011110000011 h
b1 @
1)
#1530
0)
#1540
b11 B
b10 @
b0 "
b0 /
b0 E
b0 e
b0 J
b0 b
1)
#1550
0)
#1560
1(
b100 B
b11 @
1)
#1570
0)
#1580
b0 B
1A
1?
0(
b100 @
1)
#1590
0)
#1600
b1000000 g
0A
0?
b1 B
b10000000000000001000000 &
b10000000000000001000000 5
b10000000000000001000000 V
b0 @
1)
#1610
0)
#1620
b1110 Q
b111 [
b111 R
b111 Z
b1 F
b1 _
b1 %
b1 3
b1 S
b111 T
b0 8
b0 C
b0 W
06
b10 B
b111 N
b10011 L
b10000 G
b10000 `
b111 H
b111 ^
b1101 I
b1101 ]
b111 .
b10011 +
b1 @
b11101101111100000010011 !
b11101101111100000010011 ,
b11101101111100000010011 M
b11101101111100000010011 h
1)
#1630
0)
#1640
b11 B
b10 @
b110 F
b110 _
b110 %
b110 3
b110 S
b110 d
b110 $
b110 1
b110 P
b110 \
b1000 "
b1000 /
b1000 E
b1000 e
b1000 J
b1000 b
b1110 Y
b1110 D
b1110 X
b1110 K
b1110 a
1)
#1650
0)
#1660
b100 B
b11 @
bx #
bx 0
bx O
bx f
1)
#1670
0)
#1680
1A
1?
b0 B
b100 @
1)
#1690
0)
#1700
b1 B
0A
0?
b1000100 g
b0 @
b10000000000000001000100 &
b10000000000000001000100 5
b10000000000000001000100 V
1)
#1710
0)
#1720
b1110 F
b1110 _
b1110 %
b1110 3
b1110 S
b1110 d
b1110 $
b1110 1
b1110 P
b1110 \
b1 8
b1 C
b1 W
b1000 Q
b100 [
b100 R
b100 Z
b100 T
b110 N
b10001 G
b10001 `
b100 H
b100 ^
b110 .
b10 B
b10001101110100010010011 !
b10001101110100010010011 ,
b10001101110100010010011 M
b10001101110100010010011 h
b1 @
1)
#1730
0)
#1740
b11 B
b10 @
b111 "
b111 /
b111 E
b111 e
b111 J
b111 b
1)
#1750
0)
#1760
b100 B
b11 @
1)
#1770
0)
#1780
b0 B
1A
1?
b100 @
1)
#1790
0)
#1800
b1001000 g
0A
0?
b1 B
b10000000000000001001000 &
b10000000000000001001000 5
b10000000000000001001000 V
b0 @
1)
#1810
0)
#1820
02
b1 F
b1 _
b1 %
b1 3
b1 S
b1 d
b1 $
b1 1
b1 P
b1 \
b1000 8
b1000 C
b1000 W
b110 Q
b11 [
b11 R
b11 Z
b11 T
b10 B
b101 N
b10010 G
b10010 `
b11 H
b11 ^
b100 I
b100 ]
b101 .
b1 @
b1100100101100100010011 !
b1100100101100100010011 ,
b1100100101100100010011 M
b1100100101100100010011 h
1)
#1830
0)
#1840
b11 B
b10 @
12
b0 F
b0 _
b0 %
b0 3
b0 S
b0 d
b0 $
b0 1
b0 P
b0 \
b1100 #
b1100 0
b1100 O
b1100 f
b11 "
b11 /
b11 E
b11 e
b11 J
b11 b
b111 Y
b111 D
b111 X
b111 K
b111 a
1)
#1850
0)
#1860
b100 B
b11 @
bx #
bx 0
bx O
bx f
1)
#1870
0)
#1880
1A
1?
b0 B
b100 @
1)
#1890
0)
#1900
b1 B
0A
0?
b1001100 g
b0 @
b10000000000000001001100 &
b10000000000000001001100 5
b10000000000000001001100 V
1)
#1910
0)
#1920
02
b100 F
b100 _
b100 %
b100 3
b100 S
b100 d
b100 $
b100 1
b100 P
b100 \
07
04
b110000 Q
b11 [
b11 R
b11 Z
b11000 T
b110 8
b110 C
b110 W
b0 N
b1100011 L
b10000 G
b10000 `
b1000 H
b1000 ^
b110 I
b110 ]
b1 -
b0 .
b1100011 +
b10 B
b10100000110000100001100011 !
b10100000110000100001100011 ,
b10100000110000100001100011 M
b10100000110000100001100011 h
b1 @
1)
#1930
0)
#1940
b11 B
b10 @
14
12
b0 F
b0 _
b0 %
b0 3
b0 S
b0 d
b0 $
b0 1
b0 P
b0 \
b110 [
b110 R
b110 Z
b110 "
b110 /
b110 E
b110 e
b110 J
b110 b
b110 Y
b110 D
b110 X
b110 K
b110 a
1)
#1950
0)
#1960
b100 B
b11 @
1)
#1970
0)
#1980
b0 B
1A
b100 @
1)
#1990
0)
#2000
b1111100 g
0A
b1 B
b10000000000000001111100 &
b10000000000000001111100 5
b10000000000000001111100 V
b0 @
1)
#2010
0)
#2020
b1100 [
b1100 R
b1100 Z
02
17
b11000 Q
b1010 F
b1010 _
b1010 %
b1010 3
b1010 S
b1010 d
04
b1100 T
b1010 $
b1010 1
b1010 P
b1010 \
b1101 8
b1101 C
b1101 W
b10 B
b100 N
b10011 L
b10011 G
b10011 `
b1100 H
b1100 ^
b1011 I
b1011 ]
b0 -
b100 .
b10011 +
b1 @
b110001011100100110010011 !
b110001011100100110010011 ,
b110001011100100110010011 M
b110001011100100110010011 h
1)
#2030
0)
#2040
b11 B
b10 @
b10 "
b10 /
b10 E
b10 e
b10 J
b10 b
1)
#2050
0)
#2060
b100 B
b11 @
1)
#2070
0)
#2080
1A
1?
b0 B
b100 @
1)
#2090
0)
#2100
b1 B
0A
0?
b10000000 g
b0 @
b10000000000000010000000 &
b10000000000000010000000 5
b10000000000000010000000 V
1)
#2110
0)
#2120
b1100 F
b1100 _
b1100 %
b1100 3
b1100 S
b1100 d
b1100 $
b1100 1
b1100 P
b1100 \
b1001 8
b1001 C
b1001 W
b10 Q
b1 [
b1 R
b1 Z
b1 T
b1 N
b10100 G
b10100 `
b1 H
b1 ^
b10011 I
b10011 ]
b1 .
b10 B
b110011001101000010011 !
b110011001101000010011 ,
b110011001101000010011 M
b110011001101000010011 h
b1 @
1)
#2130
0)
#2140
b11 B
b10 @
b10100 F
b10100 _
b10100 %
b10100 3
b10100 S
b10100 d
b10100 $
b10100 1
b10100 P
b10100 \
b100 "
b100 /
b100 E
b100 e
b100 J
b100 b
b1010 Y
b1010 D
b1010 X
b1010 K
b1010 a
1)
#2150
0)
#2160
b100 B
b11 @
1)
#2170
0)
#2180
b0 B
1A
1?
b100 @
1)
#2190
0)
#2200
b10000100 g
0A
0?
b1 B
b10000000000000010000100 &
b10000000000000010000100 5
b10000000000000010000100 V
b0 @
1)
#2210
0)
#2220
02
b10 F
b10 _
b10 %
b10 3
b10 S
b10 d
b10 $
b10 1
b10 P
b10 \
b1010 8
b1010 C
b1010 W
b100 Q
b10 [
b10 R
b10 Z
b10 T
b10 B
b101 N
b10101 G
b10101 `
b10 H
b10 ^
b101 I
b101 ]
b100000 -
b101 .
b1 @
b1000000001000101101101010010011 !
b1000000001000101101101010010011 ,
b1000000001000101101101010010011 M
b1000000001000101101101010010011 h
1)
#2230
0)
#2240
b11 B
b10 @
b111111111111111111111111111111 F
b111111111111111111111111111111 _
b111111111111111111111111111111 %
b111111111111111111111111111111 3
b111111111111111111111111111111 S
b111111111 d
b111111111111111111111111111111 $
b111111111111111111111111111111 1
b111111111111111111111111111111 P
b111111111111111111111111111111 \
b1 "
b1 /
b1 E
b1 e
b1 J
b1 b
b11111111111111111111111111111110 Y
b11111111111111111111111111111110 D
b11111111111111111111111111111110 X
b11111111111111111111111111111110 K
b11111111111111111111111111111110 a
1)
#2250
0)
#2260
b100 B
b11 @
1)
#2270
0)
#2280
1A
1?
b0 B
b100 @
1)
#2290
0)
#2300
b1 B
0A
0?
b10001000 g
b0 @
b10000000000000010001000 &
b10000000000000010001000 5
b10000000000000010001000 V
1)
#2310
0)
#2320
b1 F
b1 _
b1 %
b1 3
b1 S
b1 d
b1 $
b1 1
b1 P
b1 \
b111 8
b111 C
b111 W
b111000 Q
b11100 [
b11100 R
b11100 Z
b11100 T
b10 N
b10110 G
b10110 `
b11100 H
b11100 ^
b10100 I
b10100 ]
b0 -
b10 .
b10 B
b1110010100010101100010011 !
b1110010100010101100010011 ,
b1110010100010101100010011 M
b1110010100010101100010011 h
b1 @
1)
#2330
0)
#2340
b11 B
b10 @
b0 "
b0 /
b0 E
b0 e
b0 J
b0 b
b10100 Y
b10100 D
b10100 X
b10100 K
b10100 a
b1100 #
b1100 0
b1100 O
b1100 f
1)
#2350
0)
#2360
b100 B
b11 @
1)
#2370
0)
#2380
b0 B
1A
1?
b100 @
1)
#2390
0)
#2400
b10001100 g
0A
0?
b1 B
b10000000000000010001100 &
b10000000000000010001100 5
b10000000000000010001100 V
b0 @
1)
#2410
0)
#2420
02
b10100 F
b10100 _
b10100 %
b10100 3
b10100 S
b10100 d
b10100 $
b10100 1
b10100 P
b10100 \
b10 8
b10 C
b10 W
07
b0 Q
b0 [
b0 R
b0 Z
b0 T
b10 B
b0 N
b0 L
b0 G
b0 `
b0 H
b0 ^
b0 I
b0 ]
b0 .
b0 +
b1 @
b0 !
b0 ,
b0 M
b0 h
1)
#2430
0)
#2440
b11 B
b10 @
12
b0 F
b0 _
b0 %
b0 3
b0 S
b0 d
b0 $
b0 1
b0 P
b0 \
bx #
bx 0
bx O
bx f
b0 Y
b0 D
b0 X
b0 K
b0 a
1)
#2450
0)
#2460
b100 B
b11 @
1)
#2470
0)
#2480
1A
1?
b0 B
b100 @
1)
#2490
0)
#2500
b1 B
0A
0?
b10010000 g
b0 @
b10000000000000010010000 &
b10000000000000010010000 5
b10000000000000010010000 V
1)
#2510
0)
#2520
b10 B
b1 @
1)
#2530
0)
#2540
b11 B
b10 @
1)
#2550
0)
#2560
b100 B
b11 @
1)
#2570
0)
#2580
b0 B
1A
1?
b100 @
1)
#2590
0)
#2600
b10010100 g
0A
0?
b1 B
b10000000000000010010100 &
b10000000000000010010100 5
b10000000000000010010100 V
b0 @
1)
#2610
0)
#2620
b10 B
b1 @
1)
#2630
0)
#2640
b11 B
b10 @
1)
#2650
0)
#2660
b100 B
b11 @
1)
#2670
0)
#2680
1A
1?
b0 B
b100 @
1)
#2690
0)
#2700
b1 B
0A
0?
b10011000 g
b0 @
b10000000000000010011000 &
b10000000000000010011000 5
b10000000000000010011000 V
1)
#2710
0)
#2720
b10 B
b1 @
1)
#2730
0)
#2740
b11 B
b10 @
1)
#2750
0)
#2760
b100 B
b11 @
1)
#2770
0)
#2780
b0 B
1A
1?
b100 @
1)
#2790
0)
#2800
b10011100 g
0A
0?
b1 B
b10000000000000010011100 &
b10000000000000010011100 5
b10000000000000010011100 V
b0 @
1)
#2810
0)
#2820
b10 B
b1 @
1)
#2830
0)
#2840
b11 B
b10 @
1)
#2850
0)
#2860
b100 B
b11 @
1)
#2870
0)
#2880
1A
1?
b0 B
b100 @
1)
#2890
0)
#2900
b1 B
0A
0?
b10100000 g
b0 @
b10000000000000010100000 &
b10000000000000010100000 5
b10000000000000010100000 V
1)
#2910
0)
#2920
b10 B
b1 @
1)
#2930
0)
#2940
b11 B
b10 @
1)
#2950
0)
#2960
b100 B
b11 @
1)
#2970
0)
#2980
b0 B
1A
1?
b100 @
1)
#2990
0)
#3000
b10100100 g
0A
0?
b1 B
b10000000000000010100100 &
b10000000000000010100100 5
b10000000000000010100100 V
b0 @
1)
#3010
0)
#3020
b10 B
b1 @
1)
#3030
0)
#3040
b11 B
b10 @
1)
#3050
0)
#3060
b100 B
b11 @
1)
#3070
0)
